…
    ## Reading layer `10km_grid_region' from data source 
    ##   `C:\Users\Julian\OneDrive\Desktop\aru_work\assignments\Herons\Spatial\gb-grids_4278301\10km_grid_region.shp' 
    ##   using driver `ESRI Shapefile'
    ## Simple feature collection with 2860 features and 1 field
    ## Geometry type: POLYGON
    ## Dimension:     XY
    ## Bounding box:  xmin: 0 ymin: 0 xmax: 660000 ymax: 1230000
    ## Projected CRS: OSGB 1936 / British National Grid

## Uncertainty

    ## # A tibble: 32 x 7
    ## # Groups:   start_date_year [32]
    ##    start_date_year `Glossy Ibis` `Great White Egret` `Little Egret` Spoonbill
    ##              <dbl>         <dbl>               <dbl>          <dbl>     <dbl>
    ##  1            1990         7071.              35355.          3014.     6317.
    ##  2            1991         7071.                 NA           2965.     7071.
    ##  3            1992         7071.                 NA           3020.     6995.
    ##  4            1993           NA               35355.          2118.     6943.
    ##  5            1994           NA               35355.          2818.     7071.
    ##  6            1995           NA               14142.          2948.     7071.
    ##  7            1996         4243.              35355.          2601.     6535.
    ##  8            1997         7071.              31315.          3069.     7071.
    ##  9            1998           NA               34224.          2575.     6820.
    ## 10            1999         7071.                707.          3375.     6574.
    ## # ... with 22 more rows, and 2 more variables: Cattle Egret <dbl>, NA <dbl>
…
